<svg version="1.1" xmlns="http://www.w3.org/2000/svg" viewBox="0 0 768 768">
  <path fill="#000000" d="M685.856 277.312c-29.472-83.296-89.984-146.784-163.84-182.048s-161.28-42.336-244.576-12.864c-47.104 16.672-88.064 43.328-119.808 75.648l-93.632 88v-118.048c0-17.664-14.336-32-32-32s-32 14.336-32 32v191.936c0 0.48 0 0.96 0.032 1.408 0.16 3.68 0.928 7.2 2.208 10.432 1.28 3.264 3.136 6.336 5.536 9.12 0.384 0.416 0.768 0.864 1.152 1.248 2.912 3.040 6.432 5.504 10.368 7.2 3.808 1.632 7.968 2.56 12.352 2.624 0.128 0 0.224 0 0.352 0h192c17.664 0 32-14.336 32-32s-14.336-31.968-32-31.968h-111.232l90.56-85.088c24.864-25.344 57.504-46.72 95.456-60.16 66.656-23.584 136.48-17.952 195.648 10.304s107.488 78.976 131.072 145.632c5.888 16.672 24.192 25.376 40.832 19.488s25.376-24.192 19.488-40.832zM655.2 480l-89.6 84.192c-50.688 50.72-116.16 75.712-181.728 75.712s-131.040-24.96-181.024-74.944c-28.48-28.48-48.736-61.792-60.256-95.392-5.76-16.704-23.936-25.6-40.672-19.872s-25.6 23.936-19.872 40.672c14.72 42.848 40.224 84.544 75.552 119.84 62.496 62.464 144.448 93.696 226.304 93.664s163.776-31.296 225.536-93.088l94.56-88.8v118.016c0 17.664 14.336 32 32 32s32-14.336 32-32v-191.936c0-0.48 0-0.96-0.032-1.408-0.16-3.68-0.928-7.2-2.208-10.432-1.28-3.264-3.136-6.336-5.536-9.12-0.384-0.416-0.768-0.864-1.152-1.248-2.912-3.040-6.432-5.504-10.368-7.2-3.808-1.632-7.968-2.56-12.352-2.624-0.128 0-0.224 0-0.352 0h-192c-17.664 0-32 14.336-32 32s14.336 32 32 32z"></path>
</svg>
